<svg width="32" height="32" viewBox="0 0 32 32" fill="none" xmlns="http://www.w3.org/2000/svg">
<path d="M15.9998 32C24.8363 32 31.9996 24.8366 31.9996 16C31.9996 7.16344 24.8363 0 15.9998 0C7.16336 0 0 7.16344 0 16C0 24.8366 7.16336 32 15.9998 32Z" fill="#C3C1FF"/>
<path d="M13.2238 8.00025C13.1674 7.99916 13.1118 8.0142 13.0637 8.04361C13.0155 8.07302 12.9767 8.11558 12.9519 8.16626C12.9272 8.21695 12.9173 8.27367 12.9237 8.32974C12.93 8.38581 12.9522 8.43891 12.9877 8.48278C12.9877 8.48278 13.8282 9.55271 14.6818 10.6408C15.1086 11.1849 15.5383 11.7337 15.8684 12.1555C16.0335 12.3664 16.1738 12.5454 16.2757 12.6762C16.3777 12.8071 16.4525 12.905 16.4499 12.9013C17.3781 14.1754 17.2694 15.9692 16.1172 17.1214C15.8406 17.398 15.5265 17.613 15.1921 17.7694C15.1806 17.7743 15.1694 17.7799 15.1585 17.7862C14.1068 18.2634 12.8556 18.1519 11.8977 17.4541C11.9 17.4558 11.8035 17.3814 11.6727 17.2793C11.5418 17.1773 11.3623 17.0377 11.1514 16.8726C10.7296 16.5425 10.1813 16.1122 9.63725 15.6854C8.54914 14.8318 7.47918 13.9913 7.47918 13.9913C7.44856 13.9673 7.41351 13.9496 7.37603 13.9391C7.33855 13.9286 7.29938 13.9256 7.26074 13.9303C7.22211 13.935 7.18477 13.9472 7.15086 13.9663C7.11696 13.9854 7.08715 14.011 7.06313 14.0416C7.03912 14.0722 7.02137 14.1073 7.01091 14.1448C7.00045 14.1823 6.99747 14.2214 7.00215 14.2601C7.00683 14.2987 7.01907 14.336 7.03818 14.3699C7.0573 14.4039 7.0829 14.4337 7.11353 14.4577C7.11353 14.4577 8.18331 15.2979 9.27159 16.1517C9.81573 16.5786 10.3642 17.0085 10.7863 17.3389C10.9973 17.5041 11.1767 17.6444 11.3082 17.7468C11.4396 17.8493 11.5089 17.9038 11.5483 17.9325C12.1415 18.3648 12.8313 18.6031 13.5316 18.654C13.6799 21.6273 16.1358 24 19.1454 24C22.2503 24 24.7738 21.4766 24.7738 18.3717C24.7738 15.3642 22.4044 12.9094 19.4342 12.7578C19.3978 11.8361 19.1851 10.9292 18.8024 10.0877L17.9339 8.17729C17.91 8.12268 17.8701 8.07656 17.8195 8.04497C17.7689 8.01339 17.71 7.9978 17.6504 8.00025C17.6016 8.00227 17.554 8.01634 17.5119 8.04122C17.4698 8.06609 17.4346 8.10099 17.4092 8.14281C17.3839 8.18463 17.3693 8.23206 17.3668 8.28088C17.3643 8.3297 17.3739 8.37839 17.3947 8.42261L18.2631 10.333C18.6109 11.0976 18.8058 11.9211 18.8417 12.7584C18.2849 12.7882 17.7499 12.8981 17.2472 13.0784C17.1555 12.8972 17.0511 12.7207 16.929 12.553C16.8993 12.5123 16.8455 12.4436 16.7432 12.3123C16.6408 12.1808 16.5005 12.001 16.3353 11.7899C16.005 11.3677 15.5744 10.8193 15.1475 10.2752C14.2938 9.18686 13.4541 8.11712 13.4541 8.11712C13.427 8.08152 13.3922 8.05252 13.3523 8.03228C13.3125 8.01204 13.2685 8.00109 13.2238 8.00025ZM19.1142 13.3376C19.1359 13.34 19.1579 13.34 19.1796 13.3376C21.9483 13.3561 24.1813 15.5985 24.1813 18.3717C24.1813 21.1564 21.9301 23.4075 19.1454 23.4075C16.4561 23.4075 14.271 21.3062 14.124 18.654C14.4219 18.6301 14.7167 18.5693 15.0035 18.4764C15.0597 20.7147 16.8938 22.5189 19.1454 22.5189C21.4324 22.5189 23.2926 20.6587 23.2926 18.3717C23.2926 17.3666 22.9317 16.4442 22.3357 15.727C22.3077 15.6922 22.2721 15.6642 22.2318 15.6451C22.1914 15.6259 22.1472 15.6162 22.1025 15.6165C22.0461 15.617 21.9909 15.6335 21.9436 15.6643C21.8962 15.695 21.8586 15.7386 21.8352 15.7899C21.8118 15.8413 21.8036 15.8983 21.8115 15.9542C21.8194 16.0101 21.8431 16.0625 21.8798 16.1054C22.3916 16.7213 22.7002 17.5081 22.7002 18.3717C22.7002 20.3385 21.1123 21.9264 19.1454 21.9264C17.1786 21.9264 15.5907 20.3385 15.5907 18.3717C15.5907 18.3229 15.5946 18.2753 15.5965 18.227C15.9344 18.0505 16.2526 17.8238 16.5361 17.5403C17.2015 16.8749 17.5709 16.0248 17.647 15.1537C18.1029 14.9408 18.6081 14.817 19.1454 14.817C19.231 14.817 19.3211 14.8238 19.4185 14.8314C19.4969 14.8376 19.5744 14.8123 19.6342 14.7613C19.6939 14.7102 19.7309 14.6375 19.737 14.5592C19.7432 14.4809 19.7179 14.4033 19.6669 14.3436C19.6158 14.2838 19.5432 14.2468 19.4648 14.2407C19.3662 14.2329 19.2602 14.2245 19.1454 14.2245C18.6182 14.2245 18.1136 14.325 17.6487 14.5051C17.6247 14.2077 17.5649 13.9132 17.4722 13.6268C17.9868 13.4453 18.5373 13.3411 19.1142 13.3376ZM20.6254 14.5207C20.5565 14.5202 20.4895 14.5438 20.436 14.5874C20.3826 14.631 20.346 14.6919 20.3327 14.7596C20.3193 14.8272 20.33 14.8974 20.3628 14.9581C20.3957 15.0187 20.4486 15.066 20.5126 15.0918C20.7024 15.1711 20.8844 15.2691 21.0594 15.3811C21.1256 15.4234 21.2059 15.4377 21.2827 15.4208C21.3594 15.404 21.4263 15.3573 21.4687 15.2911C21.511 15.2249 21.5254 15.1446 21.5085 15.0678C21.4916 14.991 21.4449 14.9241 21.3787 14.8818C21.1787 14.7538 20.9661 14.6393 20.7406 14.545C20.7042 14.5293 20.665 14.521 20.6254 14.5207ZM19.1454 15.4094C18.9819 15.4094 18.8492 15.5421 18.8492 15.7056V16.0019C18.1949 16.0019 17.6643 16.5324 17.6643 17.1868V17.483C17.6643 18.1374 18.1949 18.6679 18.8492 18.6679H19.4417C19.769 18.6679 20.0341 18.933 20.0341 19.2604V19.5566C20.0341 19.8839 19.769 20.149 19.4417 20.149V19.2604C19.4417 19.0968 19.309 18.9641 19.1454 18.9641C18.9819 18.9641 18.8492 19.0968 18.8492 19.2604V20.149C18.5219 20.149 18.2568 19.8839 18.2568 19.5566C18.2568 19.3931 18.1241 19.2604 17.9605 19.2604C17.797 19.2604 17.6643 19.3931 17.6643 19.5566C17.6643 20.211 18.1949 20.7415 18.8492 20.7415V21.0377C18.8492 21.2012 18.9819 21.334 19.1454 21.334C19.309 21.334 19.4417 21.2012 19.4417 21.0377V20.7415C20.096 20.7415 20.6266 20.211 20.6266 19.5566V19.2604C20.6266 18.606 20.096 18.0755 19.4417 18.0755V17.1868C19.4417 17.0233 19.309 16.8905 19.1454 16.8905C18.9819 16.8905 18.8492 17.0233 18.8492 17.1868V18.0755C18.5219 18.0755 18.2568 17.8103 18.2568 17.483V17.1868C18.2568 16.8594 18.5219 16.5943 18.8492 16.5943H19.4417C19.769 16.5943 20.0341 16.8594 20.0341 17.1868C20.0341 17.3503 20.1668 17.483 20.3304 17.483C20.4939 17.483 20.6266 17.3503 20.6266 17.1868C20.6266 16.5324 20.096 16.0019 19.4417 16.0019V15.7056C19.4417 15.5421 19.309 15.4094 19.1454 15.4094Z" fill="#4E4ABC"/>
<path d="M16 14.5C16 13.4332 14.7354 12.1134 14.005 11.4402C13.7066 11.1651 13.2683 11.1287 12.9135 11.3258L9.9479 12.9734C9.43726 13.2571 9.28459 13.9122 9.66811 14.3528C10.1064 14.8564 10.7388 15.4926 11.5 16C13 17 14.4966 17.713 15.5 16.5C16.0131 15.8796 16 15.3051 16 14.5Z" stroke="#4E4ABC" stroke-width="0.6"/>
</svg>
