<svg width="44" height="50" viewBox="0 0 44 50" fill="none" xmlns="http://www.w3.org/2000/svg">
<path d="M5.58594 6.59623V48.1753C5.58594 48.617 5.94395 48.975 6.38562 48.975H36.7704C37.2117 48.975 37.5697 48.617 37.5697 48.1753V14.5924C37.5697 14.5746 37.5612 14.5595 37.5595 14.542C37.5556 14.4719 37.5417 14.4027 37.5187 14.3365C37.5098 14.3108 37.5035 14.2861 37.4923 14.2611C37.4535 14.1741 37.3995 14.0948 37.3323 14.0269L29.3364 6.03105C29.2686 5.96353 29.1889 5.90952 29.1012 5.87098C29.0772 5.86077 29.0528 5.85221 29.0278 5.84463C28.9609 5.82158 28.8914 5.80774 28.8206 5.80313C28.8071 5.80544 28.7913 5.79688 28.7745 5.79688H6.38562C5.94395 5.79688 5.58594 6.15456 5.58594 6.59623ZM34.84 13.7927H29.5739V8.52661L34.84 13.7927ZM7.18498 7.39592H27.9748V14.5924C27.9748 15.0338 28.3328 15.3918 28.7742 15.3918H35.9707V47.3759H7.18498V7.39592Z" fill="#CC2D78" stroke="#CC2D78" stroke-width="0.5"/>
<path d="M39.1685 42.5791V44.1781H41.5673C42.0089 44.1781 42.3669 43.8204 42.3669 43.3787V1.79969C42.3669 1.35801 42.0089 1 41.5673 1H11.1825C10.7408 1 10.3828 1.35801 10.3828 1.79969V4.19841H11.9822V2.59904H40.7676V42.5791H39.1685Z" fill="#CC2D78" stroke="#CC2D78" stroke-width="0.5"/>
<path d="M1 24.92C1 24.2395 1.43085 24 1.60976 24H42.3902C42.5692 24 43 24.2395 43 24.92V37.08C43 37.7605 42.5692 38 42.3902 38H1.60976C1.43085 38 1 37.7605 1 37.08V24.92Z" fill="white" stroke="#CC2D78" stroke-width="2"/>
<path d="M17.1104 28C17.5422 28 17.916 28.0743 18.2317 28.2228C18.5521 28.3713 18.7982 28.5821 18.97 28.8553C19.1418 29.1284 19.2277 29.4518 19.2277 29.8255C19.2277 30.1944 19.1418 30.5179 18.97 30.7958C18.7982 31.0689 18.5521 31.2797 18.2317 31.4282C17.916 31.572 17.5422 31.6438 17.1104 31.6438H16.1283V33.0309H15V28H17.1104ZM17.0477 30.6951C17.3867 30.6951 17.6443 30.6209 17.8208 30.4723C17.9973 30.319 18.0855 30.1034 18.0855 29.8255C18.0855 29.5428 17.9973 29.3272 17.8208 29.1787C17.6443 29.0254 17.3867 28.9487 17.0477 28.9487H16.1283V30.6951H17.0477Z" fill="#CC2D78"/>
<path d="M20.0312 28H22.2461C22.7754 28 23.2421 28.1054 23.646 28.3163C24.0546 28.5223 24.3704 28.8145 24.5932 29.193C24.8208 29.5715 24.9345 30.0124 24.9345 30.5155C24.9345 31.0186 24.8208 31.4594 24.5932 31.8379C24.3704 32.2164 24.0546 32.511 23.646 32.7219C23.2421 32.9279 22.7754 33.0309 22.2461 33.0309H20.0312V28ZM22.1903 32.0751C22.6779 32.0751 23.0656 31.9361 23.3535 31.6582C23.646 31.3755 23.7923 30.9946 23.7923 30.5155C23.7923 30.0363 23.646 29.6578 23.3535 29.3799C23.0656 29.0972 22.6779 28.9559 22.1903 28.9559H21.1596V32.0751H22.1903Z" fill="#CC2D78"/>
<path d="M26.9135 28.9343V30.2639H29.1701V31.1982H26.9135V33.0309H25.7852V28H29.4696V28.9343H26.9135Z" fill="#CC2D78"/>
</svg>
